<?xml version="1.0" encoding="utf-8"?>
<!-- Generator: Adobe Illustrator 21.1.0, SVG Export Plug-In . SVG Version: 6.00 Build 0)  -->
<svg version="1.1" id="Layer_1" xmlns="http://www.w3.org/2000/svg" xmlns:xlink="http://www.w3.org/1999/xlink" x="0px" y="0px"
	 viewBox="0 0 1210 1922.9" style="enable-background:new 0 0 1210 1922.9;" xml:space="preserve">
<style type="text/css">
	.st0{fill:url(#SVGID_1_);}
</style>
<image style="display:none;overflow:visible;enable-background:new    ;" width="1210" height="1557" xlink:href="2EBA36DC03E11E78.png"  transform="matrix(1 0 0 1 0 -0.5224)">
</image>
<linearGradient id="SVGID_1_" gradientUnits="userSpaceOnUse" x1="-223.1093" y1="1290.3662" x2="1432.9825" y2="-99.2598" gradientTransform="matrix(1 0 0 -1 0 1556)">
	<stop  offset="0" style="stop-color:#3C0F97"/>
	<stop  offset="0.2867" style="stop-color:#B30F53"/>
	<stop  offset="0.5109" style="stop-color:#E31F2E"/>
	<stop  offset="0.7704" style="stop-color:#E36A1C"/>
	<stop  offset="0.817" style="stop-color:#E36E1B"/>
	<stop  offset="0.8607" style="stop-color:#E3791A"/>
	<stop  offset="0.9033" style="stop-color:#E38C17"/>
	<stop  offset="0.9452" style="stop-color:#E3A714"/>
	<stop  offset="0.9862" style="stop-color:#E3C90F"/>
	<stop  offset="1" style="stop-color:#E3D60D"/>
</linearGradient>
<polygon class="st0" points="1196,0 1196,0.1 14,0.1 14,0 0,0 0,0.1 -0.3,0.1 -0.3,14.1 0,14.1 0,1921 14,1921 14,14.1 1196,14.1 
	1196,1921 1210,1921 1210,0 "/>
</svg>
